{
    "jet_collection": "AntiKt4EMPFlowJets",
    "calibration": {
        "file": "fragments/pflow-calibration.json"
    },
    "selection": {
        "file": "fragments/pflow-selection.json"
    },
    "vertex_collection": "PrimaryVertices",
    "dl2_configs": [],
    "variables": {
        "jet" : {
            "ints" : [
                "GhostBHadronsFinalCount",
                "GhostCHadronsFinalCount",
                "HadronConeExclTruthLabelID",
                "HadronConeExclExtendedTruthLabelID",
                "PartonTruthLabelID",
                "jetPtRank"
            ],
            "uints": ["jetFoldHash", "jetFoldHash_noHits"],
            "floats": [
                "GhostBHadronsFinalPt",
                "NNJvt",
                "pt",
                "eta",
                "mass",
                "energy"
            ]
        },
        "btagging" : {
            "ints" : [],
            "floats": [
                "pt_btagJes",
                "eta_btagJes",
                "absEta_btagJes",
                "DL1dv01_pu",
                "DL1dv01_pc",
                "DL1dv01_pb",
                "GN2v00_pb",
                "GN2v00_pc",
                "GN2v00_pu",
                "GN2v01_pb",
                "GN2v01_pc",
                "GN2v01_pu",
                "GN2v01_ptau"
            ],
            "chars": []
        },
        "event": {
            "customs" : [
                "mcEventWeight",
                "eventNumber",
                "averageInteractionsPerCrossing",
                "actualInteractionsPerCrossing",
                "nPrimaryVertices",
                "isRun3"
            ]
        },
        "default_mapping": {
            "file": "fragments/default-mapping.json"
        }
    },
    "tracks": [],
    "truths": [
        {
            "file": "fragments/overlap-leptons-TRUTH3.json"
        }
    ],
    "decorate": {
        "jet_aug": false,
        "btag_jes": true,
        "soft_muon": false,
        "track_sv_info": false
    },
    "btagging_link": "btaggingLink"
}
